P1,P2,P3,P4,P5,P6,P7,P8,P9,P10,Q4
908,60,6.6,23.5,22.3,60.3,1.19,169,160,96,6.4
906,60,7.3,23.1,22.8,60.3,1.16,169,160,97,6.1
912,55,7.6,23.2,22.8,60.3,1.15,169,158,93,6.2
910,52,7.7,23.4,22.8,60.3,1.31,169,159,91,6.5
907,55,7.9,23.2,23.6,60.3,1.31,169,160,90,6.2
912,54,8,22.9,23,60.3,1.32,170,160,89,5.9
903,51,8.2,23.1,23.2,60.3,1.32,169,159,92,6.1
910,53,7.1,23,23.6,59.5,1.32,169,160,90,5.8
904,52,6.8,22.8,23.7,59.5,1.31,170,159,88,6.2
919,53,7.2,22.9,23.5,59.5,1.32,170,158,91,6
907,52,7.3,22.8,23.7,59.4,1.3,169,160,92,6.1
912,50,7.4,23.1,23.9,59.4,1.31,169,160,91,6.1
908,52,7.5,23.1,23.8,59.4,1.32,169,158,94,6
913,53,7.6,22.8,24.1,59.4,1.31,170,159,91,5.8
908,54,7.6,23,24,59.5,1.29,170,160,91,5.8
903,56,7.8,22.9,24.3,59.4,1.31,170,158,93,6
907,58,7.6,23.4,24.4,59.4,1.31,170,159,90,5.9
914,53,7.6,22.9,24.1,59.4,1.32,170,160,91,6.1
910,53,7.4,23,24.1,59.4,1.29,170,157,92,6.1
905,54,6.9,23.2,24.2,59.4,1.32,170,159,94,6.1
909,52,6.8,23,24.1,59.4,1.3,170,160,93,6.1
912,53,6.7,23,24.2,59.4,1.29,170,160,93,6
911,52,6.6,22.7,24.6,59.4,1.3,169,158,89,6.1
908,50,3,23.2,24.3,59.4,1.28,171,157,89,6.1
913,50,7.4,22.9,24.5,59.5,1.29,171,157,87,6.1
911,47,7.7,22.6,24.2,59.5,1.3,172,157,91,6
912,44,7.8,23,24,60.3,1.29,172,158,88,6
913,47,7.8,22.8,24,59.4,1.3,173,158,91,5.9
904,50,7.7,22.9,24.1,59.4,1.31,173,159,83,6.5
908,49,7.5,22.8,24,59.4,1.31,173,159,83,6.4
904,46,7.4,22.9,23.9,59.4,1.33,173,160,84,6
967,81,3.9,22.6,24.2,60.3,1.78,171,158,86,6.4
963,80,3.9,22.6,23.6,61.1,1.78,171,159,85,6.2
955,85,4.1,22.6,23.8,61.1,1.67,171,158,86,6.1
968,83,4.4,22.6,23.7,62,1.53,171,159,86,6.1
972,84,4.4,22.7,24.1,62,1.52,171,158,83,6.4
968,82,4.6,22.5,24.2,62,1.52,171,158,85,6.3
957,83,4.7,22.4,24.2,62,1.53,172,159,86,6.2
967,85,4.9,22.4,24.2,62.8,1.51,171,159,88,6
970,84,5,22.8,24.1,62,1.53,172,159,87,6.4
974,87,5,22.5,24,62,1.52,171,159,82,6.4
968,88,5.1,22.4,24.1,62,1.52,172,159,82,6.3
962,84,5.4,22.6,24.1,62.8,1.51,171,159,81,6.2
977,81,5.3,22.8,24,63.6,1.61,172,159,88,6.3
963,81,5.5,23.1,24.1,63.7,1.42,171,159,83,6.2
967,80,5.4,22.6,23.7,63.6,1.42,171,159,86,6.4
964,76,5.6,22.8,24,62.8,1.41,170,158,77,6.7
964,74,5.3,22.5,23.9,62.8,1.41,170,158,77,6.2
965,72,6.2,22.5,24.1,63.7,1.41,170,158,80,6.4
965,68,6.2,22.4,23.8,63.7,1.42,170,158,82,6.1
966,65,6.1,22.3,23.7,63.7,1.41,171,158,80,6.4
966,65,6.1,22.4,23.6,62.8,1.4,170,158,79,6.2
959,67,6.1,22.4,23.7,62.8,1.42,172,158,77,6.4
968,66,6,22.7,23.6,62.8,1.41,170,158,78,6.2
961,62,5.9,22.4,23.6,63.7,1.43,172,159,80,6.4
965,63,5.8,22.4,23.6,63.7,1.43,170,158,80,6.4
968,61,5.5,22.3,23.6,62.8,1.44,171,159,81,6.2
968,64,5,22.3,23.5,63.7,1.42,171,159,77,6.3
958,64,5.3,22.6,23.8,63.7,1.42,172,159,76,6.3
958,66,5.2,22.7,23.6,63.7,1.41,171,159,79,6.4
955,69,4.9,23.1,23.4,63.7,1.42,171,159,83,6.2
970,70,5,22.5,23.3,62.8,1.42,170,159,81,6.2
961,69,4.7,22.6,23.5,63.7,1.41,171,159,79,6.3
969,72,4.3,22.7,23.3,63.7,1.42,171,159,77,6.2
968,95,8.8,23.8,23,62.8,1.32,172,158,82,6.4
962,91,10.2,23.8,22.6,62.8,1.33,172,158,82,6.8
959,95,9.4,23.8,23.2,62.8,1.31,172,158,85,6.4
964,95,9.4,23.6,23.1,62.8,1.32,173,158,84,6.5
970,97,9.5,23.7,23.1,62.8,1.3,172,158,82,6.1
1017,97,9.5,23.6,23.2,62.8,1.3,173,158,83,6.4
1014,99,9.3,23.7,23.1,63.7,1.31,172,158,83,6.4
1026,100,9.5,23.7,23.1,64.4,1.2,173,158,85,6.4
1018,100,9.6,23.8,23.4,65.3,1.2,171,158,82,6.5
1018,100,10,23.7,23.6,66.1,1.09,173,158,81,6.7
1022,100,9.5,23.7,24,66.9,1.07,176,159,83,6.6
1020,100,9.5,23.8,24.1,67,0.89,174,158,81,6.6
1017,100,9.5,23.8,24.5,66.9,0.87,176,158,81,6.7
1014,100,9.6,23.9,24.9,67,0.89,175,158,83,6.7
1017,100,10.3,23.6,24.9,66.9,0.87,176,158,82,7
1016,100,10.4,23.8,25.1,67,0.67,176,158,80,6.7
1022,100,10.4,23.8,25,67,0.7,176,158,81,6.5
1020,100,10.5,23.7,25.3,66.9,0.71,176,158,80,6.7
1017,100,10.5,23.7,25.5,67.5,0.7,175,158,82,6.7
1021,100,10.4,24,25.6,67.8,0.71,176,158,82,6.7
1019,100,9.9,23.8,25.8,67.1,0.69,175,158,82,6.5
1021,100,9.2,23.6,25.6,67.8,0.7,177,158,81,6.3
1023,100,9.2,23.6,25.4,67,0.69,175,157,85,6.3
1020,100,9.1,23.7,25.5,67,0.65,177,157,84,6.5
1020,100,9.1,24,25.1,65.3,0.8,177,157,84,6.6
1016,100,12.2,23.9,25.6,68.7,0.78,174,156,88,6.3
1020,93,11.9,23.9,26,69.5,0.8,175,155,91,6.2
1015,91,12,23.4,26,69.5,0.63,175,157,93,5.9
1018,85,5,23.7,25.9,69.5,0.64,169,158,84,5.7
1025,82,3.9,23.5,26.1,69.5,0.62,174,158,88,5.8
1023,79,4.1,23.6,25.8,67.8,0.54,174,160,89,5.8
1020,80,3.9,23.4,26,68.6,0.31,171,160,88,5.4
1011,76,3.8,23.2,26.1,68.6,0.31,177,159,88,5.5
1013,80,3.2,23.2,24.1,66.1,0.57,168,152,76,6.2
1023,80,3.5,23.1,24.3,66.1,0.58,168,152,82,6.2
1035,80,3.5,22.8,24,66.1,0.57,168,152,76,6.3
1077,74,4.5,23.4,24.6,70.3,0.68,170,151,82,6.9
1057,72,4.5,23.2,24.6,69.5,0.7,169,150,89,7
1070,75,4.5,23.4,24.5,69.5,0.68,171,150,87,6.5
1079,74,4.4,23.5,24.1,69.5,0.67,170,150,86,6.3
1077,73,3.9,23.6,24.5,69.5,0.69,171,151,86,6.7
1072,75,3.9,23.6,25,70.4,0.67,173,151,82,6.4
1077,75,5.1,23.8,25.1,71.2,0.7,174,151,87,6.6
1065,73,5.6,23.8,25.2,71.2,0.7,174,151,89,6.4
1075,71,5.8,23.3,25.2,70.3,0.81,172,151,87,6.3
1072,70,5.8,23.6,25.6,70.4,0.68,172,151,81,6.3
1072,72,6.2,23.5,25.5,70.4,0.66,172,151,83,6.2
1073,67,6.2,23.6,25.8,70.4,0.67,173,152,78,6.4
1071,71,6.4,23.4,25.6,70.3,0.69,174,152,82,6.9
1070,69,6.5,23.3,25.9,70.3,0.68,173,152,80,6.5
1071,69,6.8,23.4,25.9,70.4,0.69,173,152,78,6.5
1076,66,6.7,23.6,26,70.4,0.66,173,152,79,6.5
1076,64,7,23.2,26.1,70.4,0.67,173,152,80,6.7
1079,62,7.2,23.6,26.1,70.3,0.69,173,152,79,6.6
1075,59,7.4,23.6,26,70.7,0.67,173,152,81,6.3
1082,60,7.2,23.3,26,70.3,0.68,172,152,79,6.7
1076,57,7.3,23.4,26.3,70.3,0.71,174,152,87,6
1074,59,7.4,23.2,26.2,70.4,0.68,174,152,87,6.1
1079,57,7.5,23.4,26.4,70.4,0.68,174,152,86,5.8
1075,57,7.5,23.2,26.4,71.2,0.68,175,153,84,5.9
1074,59,7.5,23.2,26.3,69.5,0.68,174,153,87,6
1069,56,3.5,23.1,26.3,69.5,0.68,174,153,85,6.2
1073,61,3.2,23.6,26.4,69.5,0.68,174,153,87,6.4
1082,61,2.9,23.3,26.3,69.5,0.69,174,153,86,6.5
1075,62,3,23.1,26.2,69.5,0.69,174,153,88,6.1
1076,63,3,23,26.4,69.5,0.69,172,154,83,6.3
1072,63,4.3,23.1,26.4,69.5,0.69,171,153,85,6.1
1071,64,4.2,23,26.3,68.7,0.71,173,153,83,6.3
1074,66,4.1,23.2,26.2,67.8,0.7,173,153,83,5.9
1072,67,4.2,23.5,26,68.3,0.67,174,153,83,6.1
1078,67,4.3,23.3,26.1,67.8,0.67,174,153,84,6.3
1075,69,4.2,23.1,26.2,68.6,0.7,174,153,82,6
1071,70,3.9,23.2,26.4,67.8,0.71,174,153,83,6.1
1072,70,4.1,22.9,26,69.5,0.7,173,153,86,5.8
1080,77,5,23.6,25.4,68.7,0.65,173,152,106,6.3
1077,77,5.1,23.4,25.3,69.5,0.65,173,152,111,6.5
1059,77,4.8,23.1,25.4,68.6,0.67,172,152,109,6.5
1070,79,4.5,23.1,25.3,68.6,0.67,172,152,113,6.2
1071,78,4.5,22.9,25.5,69.5,0.68,173,152,113,6
1070,77,4.4,23,25.4,69.5,0.64,173,152,105,6.3
1074,77,4.9,23.1,25.1,69.5,0.66,173,152,108,6.5
1083,77,4.9,22.5,25.2,69.5,0.67,173,152,106,6.5
1086,77,4.6,22.4,25.3,69.5,0.67,172,152,111,6.2
1077,77,4.8,22.3,25.2,69.5,0.65,172,151,106,6.1
1065,79,5.3,22.8,25.1,69.5,0.65,173,151,106,6.3
1074,78,5.3,22.8,25.2,69.5,0.58,173,151,108,6.4
1076,79,5.5,22.7,25.3,69.5,0.65,173,151,104,6.2
1065,81,6.1,22.8,25,69.5,0.64,173,151,109,6.3
1085,81,4.9,22.9,25.3,69.4,0.65,172,151,112,6
1068,81,5,22.6,25.4,69.5,0.65,173,151,107,6.2
1075,82,5,22.5,25.1,69.5,0.6,173,151,107,6.7
1071,82,5.4,22.5,25.3,69.5,0.63,173,151,108,6.4
1071,82,5.4,22.8,25.3,69.5,0.64,173,151,105,6.1
1069,83,5.3,22.8,25.3,69.5,0.64,172,151,105,6.4
1070,82,5.5,23,25.4,69.4,0.64,172,151,106,6.5
1079,81,5.6,22.7,25.4,69.5,0.65,172,151,104,6.7
1080,81,5.5,22.9,25.5,69.5,0.64,173,151,107,6.4
1083,80,4.9,23.5,25.5,69.4,0.61,172,151,118,6.1
1072,85,5,23.2,25.6,69.4,0.6,170,150,118,7
1078,82,5.4,23.4,25.2,69.5,0.62,170,150,112,6.7
1079,81,6.2,23.6,25.2,70.3,0.62,173,151,112,6.2
1073,84,6,23.5,25.2,69.5,0.6,173,151,114,6.4
1070,85,6.3,23.3,25,69.5,0.6,174,151,115,6.2
1081,86,5.2,23.4,25,69.5,0.59,173,151,111,6.3
1075,86,4.5,23.6,25,70.3,0.61,173,151,114,6.4
1074,84,4.8,23.4,24.5,69.5,0.62,172,151,109,7
1074,84,4.5,23.6,24.8,70.3,0.6,173,151,115,6.5
1068,80,4.5,23,25,71.2,0.88,178,153,104,6.5
1065,77,4.6,23,25,71.2,0.86,179,153,101,6.5
1068,79,4.4,23,25,71.2,0.85,179,153,108,5.8
1076,77,4.5,23.1,25.1,71.2,0.77,179,154,111,6
1076,78,4.5,23.1,24.9,71.1,0.75,180,154,104,6.5
1072,78,4.7,22.9,25,71.1,0.64,170,149,115,6
1066,78,5,22.8,24.9,71.2,0.64,153,147,118,6.7
1074,75,4.8,23,24.7,71.1,0.63,143,144,106,7.7
1069,74,4.7,22.8,24.6,71.1,0.63,132,142,103,7.7
1080,74,4.9,22.8,24.7,71.1,0.66,137,146,110,7.2
1071,74,4.5,22.8,24.7,71.1,0.64,146,149,112,6.7
1084,71,4.6,22.9,24.8,71.2,0.64,155,151,108,6.2
1083,73,4.7,22.9,24.9,71.2,0.62,162,154,112,5.9
1069,72,4.7,23.1,25.1,72,0.54,167,157,106,6.4
1070,71,4.5,23.3,25.1,71.1,0.54,169,158,110,5.7
1077,74,4.5,22.7,25.2,71.1,0.56,170,156,108,5.7
1073,74,4.5,23.1,25.4,71.3,0.56,170,156,107,5.6
1085,72,4.6,22.7,25.4,71.1,0.4,171,156,110,5.6
1078,74,4.8,23.1,25.5,71.5,0.4,169,155,106,6.2
1071,71,4.8,22.7,25.3,71.1,0.41,171,155,108,5.7
1081,73,4.8,23,25.4,71.8,0.25,170,154,108,5.9
1073,72,4.7,23.2,25.5,71.1,0.27,168,153,105,6
